1031::CA1;1031;1;100;oneCaseOpen;5935716381;1;OPEN;1
1031::CA2;1031;2;99;oneCaseClosed;5379203517;1;OPEN;1
1031::CA3;1031;3;98;casesWithSpecSymbols;6238354862;1;OPEN;1
1031::CA4;1031;4;97;casesWithSpecSymbols;2748354863;1;OPEN;1
1031::CA5;1031;5;96;casesWithSpecSymbols;3748354864;1;OPEN;1
1031::CA6;1031;6;95;currencyCases;;1;OPEN;1
1031::CA7;1031;7;95;currencyCases;;1;OPEN;1
1031::CA8;1031;8;93;longFields;;1;OPEN;1
1031::CA9;1031;9;92;longFields;;1;OPEN;1
1031::CA10;1031;10;91;twoOpenTwoClosed;;1;OPEN;1
1031::CA11;1031;11;90;twoOpenTwoClosed;;1;OPEN;1
1031::CA12;1031;12;89;twoOpenTwoClosed;;1;OPEN;1
1031::CA13;1031;13;88;twoOpenTwoClosed;;1;OPEN;1
1062::CA14;1062;14;87;1062prodsysuser;;1;OPEN;1
2080::CA15;2080;15;86;2080prodsysuser;;1;OPEN;1
1062::CA16;1062;16;85;1062prodsysuser;;1;OPEN;1
2080::CA17;2080;17;84;2080prodsysuser;;1;OPEN;1
1031::CA18;1031;18;83;lessthantenuser;;1;OPEN;1
1031::CA19;1031;19;82;morethantenuser;;1;OPEN;1
1031::CA20;1031;20;81;;1238354864;1;OPEN;1
1031::CA21;1031;21;80;;6565568354864;1;OPEN;1
1031::CA22;1031;22;79;;6664864;1;OPEN;1
1031::CA23;1031;23;78;;;1;OPEN;1
1062::CA24;1062;24;77;;6565568354864;1;OPEN;1
2080::CA25;2080;25;76;;6238354862;1;OPEN;1
1031::CA26;1031;26;75;;;1;OPEN;1
1031::CA27;1031;27;74;;6565568354864;1;OPEN;1
1062::CA28;1062;28;73;222;6238354862;1;OPEN;1
2080::CA29;2080;29;72;111;57967978978;1;OPEN;1
1031::CA30;1031;30;71;1031user;2589748923;1;OPEN;1
1062::CA31;1062;31;70;1062user;3903862372;1;OPEN;1
2080::CA32;2080;32;69;2080user;4364546555;1;OPEN;1
1031::CA33;1031;33;68;test1;25812312883;0;OPEN;1
1031::CA34;1031;34;67;test2;2581231129;0;CLOSED;1
1031::CA35;1031;35;66;oneCaseOpen;5935716381;1;OPEN;1